{
	"commentStamp" : "Casco 11/9/2018 22:51",
	"super" : "WAComponent",
	"category" : "Objetos1-Cinefiloos-web",
	"classinstvars" : [ ],
	"pools" : [ ],
	"classvars" : [ ],
	"instvars" : [
		"movies",
		"parent"
	],
	"name" : "MovieListComponent",
	"type" : "normal"
}