{
	"commentStamp" : "",
	"super" : "TestCase",
	"category" : "Objetos1-Cinefiloos-tests",
	"classinstvars" : [ ],
	"pools" : [ ],
	"classvars" : [ ],
	"instvars" : [
		"movie",
		"aTitle",
		"anImdbUrl",
		"anImageUrl"
	],
	"name" : "MovieTest",
	"type" : "normal"
}