{
	"commentStamp" : "",
	"super" : "TestCase",
	"category" : "Objetos1-Cinefiloos-tests",
	"classinstvars" : [ ],
	"pools" : [ ],
	"classvars" : [ ],
	"instvars" : [
		"aMovie"
	],
	"name" : "CinephileTest",
	"type" : "normal"
}