{
	"commentStamp" : "",
	"super" : "TestCase",
	"category" : "Objetos1-Cinefiloos-tests",
	"classinstvars" : [ ],
	"pools" : [ ],
	"classvars" : [ ],
	"instvars" : [ ],
	"name" : "MoviePreferencePlatformTest",
	"type" : "normal"
}